{
  "type": "File",
  "start": 0,
  "end": 345,
  "loc": {
    "start": {
      "line": 1,
      "column": 0
    },
    "end": {
      "line": 17,
      "column": 0
    }
  },
  "program": {
    "type": "Program",
    "start": 0,
    "end": 345,
    "loc": {
      "start": {
        "line": 1,
        "column": 0
      },
      "end": {
        "line": 17,
        "column": 0
      }
    },
    "sourceType": "module",
    "body": [
      {
        "type": "ImportDeclaration",
        "start": 14,
        "end": 66,
        "loc": {
          "start": {
            "line": 2,
            "column": 0
          },
          "end": {
            "line": 2,
            "column": 52
          }
        },
        "specifiers": [
          {
            "type": "ImportSpecifier",
            "start": 23,
            "end": 33,
            "loc": {
              "start": {
                "line": 2,
                "column": 9
              },
              "end": {
                "line": 2,
                "column": 19
              }
            },
            "imported": {
              "type": "Identifier",
              "start": 23,
              "end": 33,
              "loc": {
                "start": {
                  "line": 2,
                  "column": 9
                },
                "end": {
                  "line": 2,
                  "column": 19
                },
                "identifierName": "StyleSheet"
              },
              "name": "StyleSheet"
            },
            "local": {
              "type": "Identifier",
              "start": 23,
              "end": 33,
              "loc": {
                "start": {
                  "line": 2,
                  "column": 9
                },
                "end": {
                  "line": 2,
                  "column": 19
                },
                "identifierName": "StyleSheet"
              },
              "name": "StyleSheet"
            }
          },
          {
            "type": "ImportSpecifier",
            "start": 35,
            "end": 43,
            "loc": {
              "start": {
                "line": 2,
                "column": 21
              },
              "end": {
                "line": 2,
                "column": 29
              }
            },
            "imported": {
              "type": "Identifier",
              "start": 35,
              "end": 43,
              "loc": {
                "start": {
                  "line": 2,
                  "column": 21
                },
                "end": {
                  "line": 2,
                  "column": 29
                },
                "identifierName": "Platform"
              },
              "name": "Platform"
            },
            "local": {
              "type": "Identifier",
              "start": 35,
              "end": 43,
              "loc": {
                "start": {
                  "line": 2,
                  "column": 21
                },
                "end": {
                  "line": 2,
                  "column": 29
                },
                "identifierName": "Platform"
              },
              "name": "Platform"
            }
          }
        ],
        "source": {
          "type": "StringLiteral",
          "start": 51,
          "end": 65,
          "loc": {
            "start": {
              "line": 2,
              "column": 37
            },
            "end": {
              "line": 2,
              "column": 51
            }
          },
          "extra": {
            "rawValue": "react-native",
            "raw": "\"react-native\""
          },
          "value": "react-native"
        }
      },
      {
        "type": "ExpressionStatement",
        "start": 68,
        "end": 344,
        "loc": {
          "start": {
            "line": 4,
            "column": 0
          },
          "end": {
            "line": 16,
            "column": 3
          }
        },
        "expression": {
          "type": "AssignmentExpression",
          "start": 68,
          "end": 343,
          "loc": {
            "start": {
              "line": 4,
              "column": 0
            },
            "end": {
              "line": 16,
              "column": 2
            }
          },
          "operator": "=",
          "left": {
            "type": "MemberExpression",
            "start": 68,
            "end": 82,
            "loc": {
              "start": {
                "line": 4,
                "column": 0
              },
              "end": {
                "line": 4,
                "column": 14
              }
            },
            "object": {
              "type": "Identifier",
              "start": 68,
              "end": 74,
              "loc": {
                "start": {
                  "line": 4,
                  "column": 0
                },
                "end": {
                  "line": 4,
                  "column": 6
                },
                "identifierName": "module"
              },
              "name": "module"
            },
            "property": {
              "type": "Identifier",
              "start": 75,
              "end": 82,
              "loc": {
                "start": {
                  "line": 4,
                  "column": 7
                },
                "end": {
                  "line": 4,
                  "column": 14
                },
                "identifierName": "exports"
              },
              "name": "exports"
            },
            "computed": false
          },
          "right": {
            "type": "CallExpression",
            "start": 85,
            "end": 343,
            "loc": {
              "start": {
                "line": 4,
                "column": 17
              },
              "end": {
                "line": 16,
                "column": 2
              }
            },
            "callee": {
              "type": "MemberExpression",
              "start": 85,
              "end": 102,
              "loc": {
                "start": {
                  "line": 4,
                  "column": 17
                },
                "end": {
                  "line": 4,
                  "column": 34
                }
              },
              "object": {
                "type": "Identifier",
                "start": 85,
                "end": 95,
                "loc": {
                  "start": {
                    "line": 4,
                    "column": 17
                  },
                  "end": {
                    "line": 4,
                    "column": 27
                  },
                  "identifierName": "StyleSheet"
                },
                "name": "StyleSheet"
              },
              "property": {
                "type": "Identifier",
                "start": 96,
                "end": 102,
                "loc": {
                  "start": {
                    "line": 4,
                    "column": 28
                  },
                  "end": {
                    "line": 4,
                    "column": 34
                  },
                  "identifierName": "create"
                },
                "name": "create"
              },
              "computed": false
            },
            "arguments": [
              {
                "type": "ObjectExpression",
                "start": 103,
                "end": 342,
                "loc": {
                  "start": {
                    "line": 4,
                    "column": 35
                  },
                  "end": {
                    "line": 16,
                    "column": 1
                  }
                },
                "properties": [
                  {
                    "type": "ObjectProperty",
                    "start": 107,
                    "end": 340,
                    "loc": {
                      "start": {
                        "line": 5,
                        "column": 2
                      },
                      "end": {
                        "line": 15,
                        "column": 3
                      }
                    },
                    "method": false,
                    "shorthand": false,
                    "computed": false,
                    "key": {
                      "type": "Identifier",
                      "start": 107,
                      "end": 118,
                      "loc": {
                        "start": {
                          "line": 5,
                          "column": 2
                        },
                        "end": {
                          "line": 5,
                          "column": 13
                        },
                        "identifierName": "explanation"
                      },
                      "name": "explanation"
                    },
                    "value": {
                      "type": "ObjectExpression",
                      "start": 120,
                      "end": 340,
                      "loc": {
                        "start": {
                          "line": 5,
                          "column": 15
                        },
                        "end": {
                          "line": 15,
                          "column": 3
                        }
                      },
                      "properties": [
                        {
                          "type": "ObjectProperty",
                          "start": 126,
                          "end": 154,
                          "loc": {
                            "start": {
                              "line": 6,
                              "column": 4
                            },
                            "end": {
                              "line": 6,
                              "column": 32
                            }
                          },
                          "method": false,
                          "shorthand": false,
                          "computed": false,
                          "key": {
                            "type": "Identifier",
                            "start": 126,
                            "end": 136,
                            "loc": {
                              "start": {
                                "line": 6,
                                "column": 4
                              },
                              "end": {
                                "line": 6,
                                "column": 14
                              },
                              "identifierName": "fontFamily"
                            },
                            "name": "fontFamily"
                          },
                          "value": {
                            "type": "StringLiteral",
                            "start": 138,
                            "end": 154,
                            "loc": {
                              "start": {
                                "line": 6,
                                "column": 16
                              },
                              "end": {
                                "line": 6,
                                "column": 32
                              }
                            },
                            "extra": {
                              "rawValue": "OpenSans-Light",
                              "raw": "\"OpenSans-Light\""
                            },
                            "value": "OpenSans-Light"
                          }
                        },
                        {
                          "type": "ObjectProperty",
                          "start": 160,
                          "end": 172,
                          "loc": {
                            "start": {
                              "line": 7,
                              "column": 4
                            },
                            "end": {
                              "line": 7,
                              "column": 16
                            }
                          },
                          "method": false,
                          "shorthand": false,
                          "computed": false,
                          "key": {
                            "type": "Identifier",
                            "start": 160,
                            "end": 168,
                            "loc": {
                              "start": {
                                "line": 7,
                                "column": 4
                              },
                              "end": {
                                "line": 7,
                                "column": 12
                              },
                              "identifierName": "fontSize"
                            },
                            "name": "fontSize"
                          },
                          "value": {
                            "type": "NumericLiteral",
                            "start": 170,
                            "end": 172,
                            "loc": {
                              "start": {
                                "line": 7,
                                "column": 14
                              },
                              "end": {
                                "line": 7,
                                "column": 16
                              }
                            },
                            "extra": {
                              "rawValue": 11,
                              "raw": "11"
                            },
                            "value": 11
                          }
                        },
                        {
                          "type": "ObjectProperty",
                          "start": 178,
                          "end": 202,
                          "loc": {
                            "start": {
                              "line": 8,
                              "column": 4
                            },
                            "end": {
                              "line": 8,
                              "column": 28
                            }
                          },
                          "method": false,
                          "shorthand": false,
                          "computed": false,
                          "key": {
                            "type": "Identifier",
                            "start": 178,
                            "end": 192,
                            "loc": {
                              "start": {
                                "line": 8,
                                "column": 4
                              },
                              "end": {
                                "line": 8,
                                "column": 18
                              },
                              "identifierName": "justifyContent"
                            },
                            "name": "justifyContent"
                          },
                          "value": {
                            "type": "StringLiteral",
                            "start": 194,
                            "end": 202,
                            "loc": {
                              "start": {
                                "line": 8,
                                "column": 20
                              },
                              "end": {
                                "line": 8,
                                "column": 28
                              }
                            },
                            "extra": {
                              "rawValue": "center",
                              "raw": "\"center\""
                            },
                            "value": "center"
                          }
                        },
                        {
                          "type": "ObjectProperty",
                          "start": 208,
                          "end": 228,
                          "loc": {
                            "start": {
                              "line": 9,
                              "column": 4
                            },
                            "end": {
                              "line": 9,
                              "column": 24
                            }
                          },
                          "method": false,
                          "shorthand": false,
                          "computed": false,
                          "key": {
                            "type": "Identifier",
                            "start": 208,
                            "end": 218,
                            "loc": {
                              "start": {
                                "line": 9,
                                "column": 4
                              },
                              "end": {
                                "line": 9,
                                "column": 14
                              },
                              "identifierName": "alignItems"
                            },
                            "name": "alignItems"
                          },
                          "value": {
                            "type": "StringLiteral",
                            "start": 220,
                            "end": 228,
                            "loc": {
                              "start": {
                                "line": 9,
                                "column": 16
                              },
                              "end": {
                                "line": 9,
                                "column": 24
                              }
                            },
                            "extra": {
                              "rawValue": "center",
                              "raw": "\"center\""
                            },
                            "value": "center"
                          }
                        },
                        {
                          "type": "ObjectProperty",
                          "start": 234,
                          "end": 251,
                          "loc": {
                            "start": {
                              "line": 10,
                              "column": 4
                            },
                            "end": {
                              "line": 10,
                              "column": 21
                            }
                          },
                          "method": false,
                          "shorthand": false,
                          "computed": false,
                          "key": {
                            "type": "Identifier",
                            "start": 234,
                            "end": 243,
                            "loc": {
                              "start": {
                                "line": 10,
                                "column": 4
                              },
                              "end": {
                                "line": 10,
                                "column": 13
                              },
                              "identifierName": "textAlign"
                            },
                            "name": "textAlign"
                          },
                          "value": {
                            "type": "StringLiteral",
                            "start": 245,
                            "end": 251,
                            "loc": {
                              "start": {
                                "line": 10,
                                "column": 15
                              },
                              "end": {
                                "line": 10,
                                "column": 21
                              }
                            },
                            "extra": {
                              "rawValue": "left",
                              "raw": "\"left\""
                            },
                            "value": "left"
                          }
                        },
                        {
                          "type": "ObjectProperty",
                          "start": 257,
                          "end": 273,
                          "loc": {
                            "start": {
                              "line": 11,
                              "column": 4
                            },
                            "end": {
                              "line": 11,
                              "column": 20
                            }
                          },
                          "method": false,
                          "shorthand": false,
                          "computed": false,
                          "key": {
                            "type": "Identifier",
                            "start": 257,
                            "end": 262,
                            "loc": {
                              "start": {
                                "line": 11,
                                "column": 4
                              },
                              "end": {
                                "line": 11,
                                "column": 9
                              },
                              "identifierName": "color"
                            },
                            "name": "color"
                          },
                          "value": {
                            "type": "StringLiteral",
                            "start": 264,
                            "end": 273,
                            "loc": {
                              "start": {
                                "line": 11,
                                "column": 11
                              },
                              "end": {
                                "line": 11,
                                "column": 20
                              }
                            },
                            "extra": {
                              "rawValue": "#1f1f1d",
                              "raw": "\"#1f1f1d\""
                            },
                            "value": "#1f1f1d"
                          }
                        },
                        {
                          "type": "ObjectProperty",
                          "start": 279,
                          "end": 293,
                          "loc": {
                            "start": {
                              "line": 12,
                              "column": 4
                            },
                            "end": {
                              "line": 12,
                              "column": 18
                            }
                          },
                          "method": false,
                          "shorthand": false,
                          "computed": false,
                          "key": {
                            "type": "Identifier",
                            "start": 279,
                            "end": 289,
                            "loc": {
                              "start": {
                                "line": 12,
                                "column": 4
                              },
                              "end": {
                                "line": 12,
                                "column": 14
                              },
                              "identifierName": "paddingTop"
                            },
                            "name": "paddingTop"
                          },
                          "value": {
                            "type": "NumericLiteral",
                            "start": 291,
                            "end": 293,
                            "loc": {
                              "start": {
                                "line": 12,
                                "column": 16
                              },
                              "end": {
                                "line": 12,
                                "column": 18
                              }
                            },
                            "extra": {
                              "rawValue": 25,
                              "raw": "25"
                            },
                            "value": 25
                          }
                        },
                        {
                          "type": "ObjectProperty",
                          "start": 299,
                          "end": 314,
                          "loc": {
                            "start": {
                              "line": 13,
                              "column": 4
                            },
                            "end": {
                              "line": 13,
                              "column": 19
                            }
                          },
                          "method": false,
                          "shorthand": false,
                          "computed": false,
                          "key": {
                            "type": "Identifier",
                            "start": 299,
                            "end": 310,
                            "loc": {
                              "start": {
                                "line": 13,
                                "column": 4
                              },
                              "end": {
                                "line": 13,
                                "column": 15
                              },
                              "identifierName": "paddingLeft"
                            },
                            "name": "paddingLeft"
                          },
                          "value": {
                            "type": "NumericLiteral",
                            "start": 312,
                            "end": 314,
                            "loc": {
                              "start": {
                                "line": 13,
                                "column": 17
                              },
                              "end": {
                                "line": 13,
                                "column": 19
                              }
                            },
                            "extra": {
                              "rawValue": 25,
                              "raw": "25"
                            },
                            "value": 25
                          }
                        },
                        {
                          "type": "ObjectProperty",
                          "start": 320,
                          "end": 336,
                          "loc": {
                            "start": {
                              "line": 14,
                              "column": 4
                            },
                            "end": {
                              "line": 14,
                              "column": 20
                            }
                          },
                          "method": false,
                          "shorthand": false,
                          "computed": false,
                          "key": {
                            "type": "Identifier",
                            "start": 320,
                            "end": 332,
                            "loc": {
                              "start": {
                                "line": 14,
                                "column": 4
                              },
                              "end": {
                                "line": 14,
                                "column": 16
                              },
                              "identifierName": "paddingRight"
                            },
                            "name": "paddingRight"
                          },
                          "value": {
                            "type": "NumericLiteral",
                            "start": 334,
                            "end": 336,
                            "loc": {
                              "start": {
                                "line": 14,
                                "column": 18
                              },
                              "end": {
                                "line": 14,
                                "column": 20
                              }
                            },
                            "extra": {
                              "rawValue": 20,
                              "raw": "20"
                            },
                            "value": 20
                          }
                        }
                      ]
                    }
                  }
                ]
              }
            ]
          }
        }
      }
    ],
    "directives": [
      {
        "type": "Directive",
        "start": 0,
        "end": 13,
        "loc": {
          "start": {
            "line": 1,
            "column": 0
          },
          "end": {
            "line": 1,
            "column": 13
          }
        },
        "value": {
          "type": "DirectiveLiteral",
          "start": 0,
          "end": 12,
          "loc": {
            "start": {
              "line": 1,
              "column": 0
            },
            "end": {
              "line": 1,
              "column": 12
            }
          },
          "value": "use strict",
          "extra": {
            "raw": "\"use strict\"",
            "rawValue": "use strict"
          }
        }
      }
    ]
  },
  "comments": [],
  "tokens": [
    {
      "type": {
        "label": "string",
        "beforeExpr": false,
        "startsExpr": true,
        "rightAssociative": false,
        "isLoop": false,
        "isAssign": false,
        "prefix": false,
        "postfix": false,
        "binop": null,
        "updateContext": null
      },
      "value": "use strict",
      "start": 0,
      "end": 12,
      "loc": {
        "start": {
          "line": 1,
          "column": 0
        },
        "end": {
          "line": 1,
          "column": 12
        }
      }
    },
    {
      "type": {
        "label": ";",
        "beforeExpr": true,
        "startsExpr": false,
        "rightAssociative": false,
        "isLoop": false,
        "isAssign": false,
        "prefix": false,
        "postfix": false,
        "binop": null,
        "updateContext": null
      },
      "start": 12,
      "end": 13,
      "loc": {
        "start": {
          "line": 1,
          "column": 12
        },
        "end": {
          "line": 1,
          "column": 13
        }
      }
    },
    {
      "type": {
        "label": "import",
        "keyword": "import",
        "beforeExpr": false,
        "startsExpr": true,
        "rightAssociative": false,
        "isLoop": false,
        "isAssign": false,
        "prefix": false,
        "postfix": false,
        "binop": null,
        "updateContext": null
      },
      "value": "import",
      "start": 14,
      "end": 20,
      "loc": {
        "start": {
          "line": 2,
          "column": 0
        },
        "end": {
          "line": 2,
          "column": 6
        }
      }
    },
    {
      "type": {
        "label": "{",
        "beforeExpr": true,
        "startsExpr": true,
        "rightAssociative": false,
        "isLoop": false,
        "isAssign": false,
        "prefix": false,
        "postfix": false,
        "binop": null
      },
      "start": 21,
      "end": 22,
      "loc": {
        "start": {
          "line": 2,
          "column": 7
        },
        "end": {
          "line": 2,
          "column": 8
        }
      }
    },
    {
      "type": {
        "label": "name",
        "beforeExpr": false,
        "startsExpr": true,
        "rightAssociative": false,
        "isLoop": false,
        "isAssign": false,
        "prefix": false,
        "postfix": false,
        "binop": null
      },
      "value": "StyleSheet",
      "start": 23,
      "end": 33,
      "loc": {
        "start": {
          "line": 2,
          "column": 9
        },
        "end": {
          "line": 2,
          "column": 19
        }
      }
    },
    {
      "type": {
        "label": ",",
        "beforeExpr": true,
        "startsExpr": false,
        "rightAssociative": false,
        "isLoop": false,
        "isAssign": false,
        "prefix": false,
        "postfix": false,
        "binop": null,
        "updateContext": null
      },
      "start": 33,
      "end": 34,
      "loc": {
        "start": {
          "line": 2,
          "column": 19
        },
        "end": {
          "line": 2,
          "column": 20
        }
      }
    },
    {
      "type": {
        "label": "name",
        "beforeExpr": false,
        "startsExpr": true,
        "rightAssociative": false,
        "isLoop": false,
        "isAssign": false,
        "prefix": false,
        "postfix": false,
        "binop": null
      },
      "value": "Platform",
      "start": 35,
      "end": 43,
      "loc": {
        "start": {
          "line": 2,
          "column": 21
        },
        "end": {
          "line": 2,
          "column": 29
        }
      }
    },
    {
      "type": {
        "label": "}",
        "beforeExpr": false,
        "startsExpr": false,
        "rightAssociative": false,
        "isLoop": false,
        "isAssign": false,
        "prefix": false,
        "postfix": false,
        "binop": null
      },
      "start": 44,
      "end": 45,
      "loc": {
        "start": {
          "line": 2,
          "column": 30
        },
        "end": {
          "line": 2,
          "column": 31
        }
      }
    },
    {
      "type": {
        "label": "name",
        "beforeExpr": false,
        "startsExpr": true,
        "rightAssociative": false,
        "isLoop": false,
        "isAssign": false,
        "prefix": false,
        "postfix": false,
        "binop": null
      },
      "value": "from",
      "start": 46,
      "end": 50,
      "loc": {
        "start": {
          "line": 2,
          "column": 32
        },
        "end": {
          "line": 2,
          "column": 36
        }
      }
    },
    {
      "type": {
        "label": "string",
        "beforeExpr": false,
        "startsExpr": true,
        "rightAssociative": false,
        "isLoop": false,
        "isAssign": false,
        "prefix": false,
        "postfix": false,
        "binop": null,
        "updateContext": null
      },
      "value": "react-native",
      "start": 51,
      "end": 65,
      "loc": {
        "start": {
          "line": 2,
          "column": 37
        },
        "end": {
          "line": 2,
          "column": 51
        }
      }
    },
    {
      "type": {
        "label": ";",
        "beforeExpr": true,
        "startsExpr": false,
        "rightAssociative": false,
        "isLoop": false,
        "isAssign": false,
        "prefix": false,
        "postfix": false,
        "binop": null,
        "updateContext": null
      },
      "start": 65,
      "end": 66,
      "loc": {
        "start": {
          "line": 2,
          "column": 51
        },
        "end": {
          "line": 2,
          "column": 52
        }
      }
    },
    {
      "type": {
        "label": "name",
        "beforeExpr": false,
        "startsExpr": true,
        "rightAssociative": false,
        "isLoop": false,
        "isAssign": false,
        "prefix": false,
        "postfix": false,
        "binop": null
      },
      "value": "module",
      "start": 68,
      "end": 74,
      "loc": {
        "start": {
          "line": 4,
          "column": 0
        },
        "end": {
          "line": 4,
          "column": 6
        }
      }
    },
    {
      "type": {
        "label": ".",
        "beforeExpr": false,
        "startsExpr": false,
        "rightAssociative": false,
        "isLoop": false,
        "isAssign": false,
        "prefix": false,
        "postfix": false,
        "binop": null,
        "updateContext": null
      },
      "start": 74,
      "end": 75,
      "loc": {
        "start": {
          "line": 4,
          "column": 6
        },
        "end": {
          "line": 4,
          "column": 7
        }
      }
    },
    {
      "type": {
        "label": "name",
        "beforeExpr": false,
        "startsExpr": true,
        "rightAssociative": false,
        "isLoop": false,
        "isAssign": false,
        "prefix": false,
        "postfix": false,
        "binop": null
      },
      "value": "exports",
      "start": 75,
      "end": 82,
      "loc": {
        "start": {
          "line": 4,
          "column": 7
        },
        "end": {
          "line": 4,
          "column": 14
        }
      }
    },
    {
      "type": {
        "label": "=",
        "beforeExpr": true,
        "startsExpr": false,
        "rightAssociative": false,
        "isLoop": false,
        "isAssign": true,
        "prefix": false,
        "postfix": false,
        "binop": null,
        "updateContext": null
      },
      "value": "=",
      "start": 83,
      "end": 84,
      "loc": {
        "start": {
          "line": 4,
          "column": 15
        },
        "end": {
          "line": 4,
          "column": 16
        }
      }
    },
    {
      "type": {
        "label": "name",
        "beforeExpr": false,
        "startsExpr": true,
        "rightAssociative": false,
        "isLoop": false,
        "isAssign": false,
        "prefix": false,
        "postfix": false,
        "binop": null
      },
      "value": "StyleSheet",
      "start": 85,
      "end": 95,
      "loc": {
        "start": {
          "line": 4,
          "column": 17
        },
        "end": {
          "line": 4,
          "column": 27
        }
      }
    },
    {
      "type": {
        "label": ".",
        "beforeExpr": false,
        "startsExpr": false,
        "rightAssociative": false,
        "isLoop": false,
        "isAssign": false,
        "prefix": false,
        "postfix": false,
        "binop": null,
        "updateContext": null
      },
      "start": 95,
      "end": 96,
      "loc": {
        "start": {
          "line": 4,
          "column": 27
        },
        "end": {
          "line": 4,
          "column": 28
        }
      }
    },
    {
      "type": {
        "label": "name",
        "beforeExpr": false,
        "startsExpr": true,
        "rightAssociative": false,
        "isLoop": false,
        "isAssign": false,
        "prefix": false,
        "postfix": false,
        "binop": null
      },
      "value": "create",
      "start": 96,
      "end": 102,
      "loc": {
        "start": {
          "line": 4,
          "column": 28
        },
        "end": {
          "line": 4,
          "column": 34
        }
      }
    },
    {
      "type": {
        "label": "(",
        "beforeExpr": true,
        "startsExpr": true,
        "rightAssociative": false,
        "isLoop": false,
        "isAssign": false,
        "prefix": false,
        "postfix": false,
        "binop": null
      },
      "start": 102,
      "end": 103,
      "loc": {
        "start": {
          "line": 4,
          "column": 34
        },
        "end": {
          "line": 4,
          "column": 35
        }
      }
    },
    {
      "type": {
        "label": "{",
        "beforeExpr": true,
        "startsExpr": true,
        "rightAssociative": false,
        "isLoop": false,
        "isAssign": false,
        "prefix": false,
        "postfix": false,
        "binop": null
      },
      "start": 103,
      "end": 104,
      "loc": {
        "start": {
          "line": 4,
          "column": 35
        },
        "end": {
          "line": 4,
          "column": 36
        }
      }
    },
    {
      "type": {
        "label": "name",
        "beforeExpr": false,
        "startsExpr": true,
        "rightAssociative": false,
        "isLoop": false,
        "isAssign": false,
        "prefix": false,
        "postfix": false,
        "binop": null
      },
      "value": "explanation",
      "start": 107,
      "end": 118,
      "loc": {
        "start": {
          "line": 5,
          "column": 2
        },
        "end": {
          "line": 5,
          "column": 13
        }
      }
    },
    {
      "type": {
        "label": ":",
        "beforeExpr": true,
        "startsExpr": false,
        "rightAssociative": false,
        "isLoop": false,
        "isAssign": false,
        "prefix": false,
        "postfix": false,
        "binop": null,
        "updateContext": null
      },
      "start": 118,
      "end": 119,
      "loc": {
        "start": {
          "line": 5,
          "column": 13
        },
        "end": {
          "line": 5,
          "column": 14
        }
      }
    },
    {
      "type": {
        "label": "{",
        "beforeExpr": true,
        "startsExpr": true,
        "rightAssociative": false,
        "isLoop": false,
        "isAssign": false,
        "prefix": false,
        "postfix": false,
        "binop": null
      },
      "start": 120,
      "end": 121,
      "loc": {
        "start": {
          "line": 5,
          "column": 15
        },
        "end": {
          "line": 5,
          "column": 16
        }
      }
    },
    {
      "type": {
        "label": "name",
        "beforeExpr": false,
        "startsExpr": true,
        "rightAssociative": false,
        "isLoop": false,
        "isAssign": false,
        "prefix": false,
        "postfix": false,
        "binop": null
      },
      "value": "fontFamily",
      "start": 126,
      "end": 136,
      "loc": {
        "start": {
          "line": 6,
          "column": 4
        },
        "end": {
          "line": 6,
          "column": 14
        }
      }
    },
    {
      "type": {
        "label": ":",
        "beforeExpr": true,
        "startsExpr": false,
        "rightAssociative": false,
        "isLoop": false,
        "isAssign": false,
        "prefix": false,
        "postfix": false,
        "binop": null,
        "updateContext": null
      },
      "start": 136,
      "end": 137,
      "loc": {
        "start": {
          "line": 6,
          "column": 14
        },
        "end": {
          "line": 6,
          "column": 15
        }
      }
    },
    {
      "type": {
        "label": "string",
        "beforeExpr": false,
        "startsExpr": true,
        "rightAssociative": false,
        "isLoop": false,
        "isAssign": false,
        "prefix": false,
        "postfix": false,
        "binop": null,
        "updateContext": null
      },
      "value": "OpenSans-Light",
      "start": 138,
      "end": 154,
      "loc": {
        "start": {
          "line": 6,
          "column": 16
        },
        "end": {
          "line": 6,
          "column": 32
        }
      }
    },
    {
      "type": {
        "label": ",",
        "beforeExpr": true,
        "startsExpr": false,
        "rightAssociative": false,
        "isLoop": false,
        "isAssign": false,
        "prefix": false,
        "postfix": false,
        "binop": null,
        "updateContext": null
      },
      "start": 154,
      "end": 155,
      "loc": {
        "start": {
          "line": 6,
          "column": 32
        },
        "end": {
          "line": 6,
          "column": 33
        }
      }
    },
    {
      "type": {
        "label": "name",
        "beforeExpr": false,
        "startsExpr": true,
        "rightAssociative": false,
        "isLoop": false,
        "isAssign": false,
        "prefix": false,
        "postfix": false,
        "binop": null
      },
      "value": "fontSize",
      "start": 160,
      "end": 168,
      "loc": {
        "start": {
          "line": 7,
          "column": 4
        },
        "end": {
          "line": 7,
          "column": 12
        }
      }
    },
    {
      "type": {
        "label": ":",
        "beforeExpr": true,
        "startsExpr": false,
        "rightAssociative": false,
        "isLoop": false,
        "isAssign": false,
        "prefix": false,
        "postfix": false,
        "binop": null,
        "updateContext": null
      },
      "start": 168,
      "end": 169,
      "loc": {
        "start": {
          "line": 7,
          "column": 12
        },
        "end": {
          "line": 7,
          "column": 13
        }
      }
    },
    {
      "type": {
        "label": "num",
        "beforeExpr": false,
        "startsExpr": true,
        "rightAssociative": false,
        "isLoop": false,
        "isAssign": false,
        "prefix": false,
        "postfix": false,
        "binop": null,
        "updateContext": null
      },
      "value": 11,
      "start": 170,
      "end": 172,
      "loc": {
        "start": {
          "line": 7,
          "column": 14
        },
        "end": {
          "line": 7,
          "column": 16
        }
      }
    },
    {
      "type": {
        "label": ",",
        "beforeExpr": true,
        "startsExpr": false,
        "rightAssociative": false,
        "isLoop": false,
        "isAssign": false,
        "prefix": false,
        "postfix": false,
        "binop": null,
        "updateContext": null
      },
      "start": 172,
      "end": 173,
      "loc": {
        "start": {
          "line": 7,
          "column": 16
        },
        "end": {
          "line": 7,
          "column": 17
        }
      }
    },
    {
      "type": {
        "label": "name",
        "beforeExpr": false,
        "startsExpr": true,
        "rightAssociative": false,
        "isLoop": false,
        "isAssign": false,
        "prefix": false,
        "postfix": false,
        "binop": null
      },
      "value": "justifyContent",
      "start": 178,
      "end": 192,
      "loc": {
        "start": {
          "line": 8,
          "column": 4
        },
        "end": {
          "line": 8,
          "column": 18
        }
      }
    },
    {
      "type": {
        "label": ":",
        "beforeExpr": true,
        "startsExpr": false,
        "rightAssociative": false,
        "isLoop": false,
        "isAssign": false,
        "prefix": false,
        "postfix": false,
        "binop": null,
        "updateContext": null
      },
      "start": 192,
      "end": 193,
      "loc": {
        "start": {
          "line": 8,
          "column": 18
        },
        "end": {
          "line": 8,
          "column": 19
        }
      }
    },
    {
      "type": {
        "label": "string",
        "beforeExpr": false,
        "startsExpr": true,
        "rightAssociative": false,
        "isLoop": false,
        "isAssign": false,
        "prefix": false,
        "postfix": false,
        "binop": null,
        "updateContext": null
      },
      "value": "center",
      "start": 194,
      "end": 202,
      "loc": {
        "start": {
          "line": 8,
          "column": 20
        },
        "end": {
          "line": 8,
          "column": 28
        }
      }
    },
    {
      "type": {
        "label": ",",
        "beforeExpr": true,
        "startsExpr": false,
        "rightAssociative": false,
        "isLoop": false,
        "isAssign": false,
        "prefix": false,
        "postfix": false,
        "binop": null,
        "updateContext": null
      },
      "start": 202,
      "end": 203,
      "loc": {
        "start": {
          "line": 8,
          "column": 28
        },
        "end": {
          "line": 8,
          "column": 29
        }
      }
    },
    {
      "type": {
        "label": "name",
        "beforeExpr": false,
        "startsExpr": true,
        "rightAssociative": false,
        "isLoop": false,
        "isAssign": false,
        "prefix": false,
        "postfix": false,
        "binop": null
      },
      "value": "alignItems",
      "start": 208,
      "end": 218,
      "loc": {
        "start": {
          "line": 9,
          "column": 4
        },
        "end": {
          "line": 9,
          "column": 14
        }
      }
    },
    {
      "type": {
        "label": ":",
        "beforeExpr": true,
        "startsExpr": false,
        "rightAssociative": false,
        "isLoop": false,
        "isAssign": false,
        "prefix": false,
        "postfix": false,
        "binop": null,
        "updateContext": null
      },
      "start": 218,
      "end": 219,
      "loc": {
        "start": {
          "line": 9,
          "column": 14
        },
        "end": {
          "line": 9,
          "column": 15
        }
      }
    },
    {
      "type": {
        "label": "string",
        "beforeExpr": false,
        "startsExpr": true,
        "rightAssociative": false,
        "isLoop": false,
        "isAssign": false,
        "prefix": false,
        "postfix": false,
        "binop": null,
        "updateContext": null
      },
      "value": "center",
      "start": 220,
      "end": 228,
      "loc": {
        "start": {
          "line": 9,
          "column": 16
        },
        "end": {
          "line": 9,
          "column": 24
        }
      }
    },
    {
      "type": {
        "label": ",",
        "beforeExpr": true,
        "startsExpr": false,
        "rightAssociative": false,
        "isLoop": false,
        "isAssign": false,
        "prefix": false,
        "postfix": false,
        "binop": null,
        "updateContext": null
      },
      "start": 228,
      "end": 229,
      "loc": {
        "start": {
          "line": 9,
          "column": 24
        },
        "end": {
          "line": 9,
          "column": 25
        }
      }
    },
    {
      "type": {
        "label": "name",
        "beforeExpr": false,
        "startsExpr": true,
        "rightAssociative": false,
        "isLoop": false,
        "isAssign": false,
        "prefix": false,
        "postfix": false,
        "binop": null
      },
      "value": "textAlign",
      "start": 234,
      "end": 243,
      "loc": {
        "start": {
          "line": 10,
          "column": 4
        },
        "end": {
          "line": 10,
          "column": 13
        }
      }
    },
    {
      "type": {
        "label": ":",
        "beforeExpr": true,
        "startsExpr": false,
        "rightAssociative": false,
        "isLoop": false,
        "isAssign": false,
        "prefix": false,
        "postfix": false,
        "binop": null,
        "updateContext": null
      },
      "start": 243,
      "end": 244,
      "loc": {
        "start": {
          "line": 10,
          "column": 13
        },
        "end": {
          "line": 10,
          "column": 14
        }
      }
    },
    {
      "type": {
        "label": "string",
        "beforeExpr": false,
        "startsExpr": true,
        "rightAssociative": false,
        "isLoop": false,
        "isAssign": false,
        "prefix": false,
        "postfix": false,
        "binop": null,
        "updateContext": null
      },
      "value": "left",
      "start": 245,
      "end": 251,
      "loc": {
        "start": {
          "line": 10,
          "column": 15
        },
        "end": {
          "line": 10,
          "column": 21
        }
      }
    },
    {
      "type": {
        "label": ",",
        "beforeExpr": true,
        "startsExpr": false,
        "rightAssociative": false,
        "isLoop": false,
        "isAssign": false,
        "prefix": false,
        "postfix": false,
        "binop": null,
        "updateContext": null
      },
      "start": 251,
      "end": 252,
      "loc": {
        "start": {
          "line": 10,
          "column": 21
        },
        "end": {
          "line": 10,
          "column": 22
        }
      }
    },
    {
      "type": {
        "label": "name",
        "beforeExpr": false,
        "startsExpr": true,
        "rightAssociative": false,
        "isLoop": false,
        "isAssign": false,
        "prefix": false,
        "postfix": false,
        "binop": null
      },
      "value": "color",
      "start": 257,
      "end": 262,
      "loc": {
        "start": {
          "line": 11,
          "column": 4
        },
        "end": {
          "line": 11,
          "column": 9
        }
      }
    },
    {
      "type": {
        "label": ":",
        "beforeExpr": true,
        "startsExpr": false,
        "rightAssociative": false,
        "isLoop": false,
        "isAssign": false,
        "prefix": false,
        "postfix": false,
        "binop": null,
        "updateContext": null
      },
      "start": 262,
      "end": 263,
      "loc": {
        "start": {
          "line": 11,
          "column": 9
        },
        "end": {
          "line": 11,
          "column": 10
        }
      }
    },
    {
      "type": {
        "label": "string",
        "beforeExpr": false,
        "startsExpr": true,
        "rightAssociative": false,
        "isLoop": false,
        "isAssign": false,
        "prefix": false,
        "postfix": false,
        "binop": null,
        "updateContext": null
      },
      "value": "#1f1f1d",
      "start": 264,
      "end": 273,
      "loc": {
        "start": {
          "line": 11,
          "column": 11
        },
        "end": {
          "line": 11,
          "column": 20
        }
      }
    },
    {
      "type": {
        "label": ",",
        "beforeExpr": true,
        "startsExpr": false,
        "rightAssociative": false,
        "isLoop": false,
        "isAssign": false,
        "prefix": false,
        "postfix": false,
        "binop": null,
        "updateContext": null
      },
      "start": 273,
      "end": 274,
      "loc": {
        "start": {
          "line": 11,
          "column": 20
        },
        "end": {
          "line": 11,
          "column": 21
        }
      }
    },
    {
      "type": {
        "label": "name",
        "beforeExpr": false,
        "startsExpr": true,
        "rightAssociative": false,
        "isLoop": false,
        "isAssign": false,
        "prefix": false,
        "postfix": false,
        "binop": null
      },
      "value": "paddingTop",
      "start": 279,
      "end": 289,
      "loc": {
        "start": {
          "line": 12,
          "column": 4
        },
        "end": {
          "line": 12,
          "column": 14
        }
      }
    },
    {
      "type": {
        "label": ":",
        "beforeExpr": true,
        "startsExpr": false,
        "rightAssociative": false,
        "isLoop": false,
        "isAssign": false,
        "prefix": false,
        "postfix": false,
        "binop": null,
        "updateContext": null
      },
      "start": 289,
      "end": 290,
      "loc": {
        "start": {
          "line": 12,
          "column": 14
        },
        "end": {
          "line": 12,
          "column": 15
        }
      }
    },
    {
      "type": {
        "label": "num",
        "beforeExpr": false,
        "startsExpr": true,
        "rightAssociative": false,
        "isLoop": false,
        "isAssign": false,
        "prefix": false,
        "postfix": false,
        "binop": null,
        "updateContext": null
      },
      "value": 25,
      "start": 291,
      "end": 293,
      "loc": {
        "start": {
          "line": 12,
          "column": 16
        },
        "end": {
          "line": 12,
          "column": 18
        }
      }
    },
    {
      "type": {
        "label": ",",
        "beforeExpr": true,
        "startsExpr": false,
        "rightAssociative": false,
        "isLoop": false,
        "isAssign": false,
        "prefix": false,
        "postfix": false,
        "binop": null,
        "updateContext": null
      },
      "start": 293,
      "end": 294,
      "loc": {
        "start": {
          "line": 12,
          "column": 18
        },
        "end": {
          "line": 12,
          "column": 19
        }
      }
    },
    {
      "type": {
        "label": "name",
        "beforeExpr": false,
        "startsExpr": true,
        "rightAssociative": false,
        "isLoop": false,
        "isAssign": false,
        "prefix": false,
        "postfix": false,
        "binop": null
      },
      "value": "paddingLeft",
      "start": 299,
      "end": 310,
      "loc": {
        "start": {
          "line": 13,
          "column": 4
        },
        "end": {
          "line": 13,
          "column": 15
        }
      }
    },
    {
      "type": {
        "label": ":",
        "beforeExpr": true,
        "startsExpr": false,
        "rightAssociative": false,
        "isLoop": false,
        "isAssign": false,
        "prefix": false,
        "postfix": false,
        "binop": null,
        "updateContext": null
      },
      "start": 310,
      "end": 311,
      "loc": {
        "start": {
          "line": 13,
          "column": 15
        },
        "end": {
          "line": 13,
          "column": 16
        }
      }
    },
    {
      "type": {
        "label": "num",
        "beforeExpr": false,
        "startsExpr": true,
        "rightAssociative": false,
        "isLoop": false,
        "isAssign": false,
        "prefix": false,
        "postfix": false,
        "binop": null,
        "updateContext": null
      },
      "value": 25,
      "start": 312,
      "end": 314,
      "loc": {
        "start": {
          "line": 13,
          "column": 17
        },
        "end": {
          "line": 13,
          "column": 19
        }
      }
    },
    {
      "type": {
        "label": ",",
        "beforeExpr": true,
        "startsExpr": false,
        "rightAssociative": false,
        "isLoop": false,
        "isAssign": false,
        "prefix": false,
        "postfix": false,
        "binop": null,
        "updateContext": null
      },
      "start": 314,
      "end": 315,
      "loc": {
        "start": {
          "line": 13,
          "column": 19
        },
        "end": {
          "line": 13,
          "column": 20
        }
      }
    },
    {
      "type": {
        "label": "name",
        "beforeExpr": false,
        "startsExpr": true,
        "rightAssociative": false,
        "isLoop": false,
        "isAssign": false,
        "prefix": false,
        "postfix": false,
        "binop": null
      },
      "value": "paddingRight",
      "start": 320,
      "end": 332,
      "loc": {
        "start": {
          "line": 14,
          "column": 4
        },
        "end": {
          "line": 14,
          "column": 16
        }
      }
    },
    {
      "type": {
        "label": ":",
        "beforeExpr": true,
        "startsExpr": false,
        "rightAssociative": false,
        "isLoop": false,
        "isAssign": false,
        "prefix": false,
        "postfix": false,
        "binop": null,
        "updateContext": null
      },
      "start": 332,
      "end": 333,
      "loc": {
        "start": {
          "line": 14,
          "column": 16
        },
        "end": {
          "line": 14,
          "column": 17
        }
      }
    },
    {
      "type": {
        "label": "num",
        "beforeExpr": false,
        "startsExpr": true,
        "rightAssociative": false,
        "isLoop": false,
        "isAssign": false,
        "prefix": false,
        "postfix": false,
        "binop": null,
        "updateContext": null
      },
      "value": 20,
      "start": 334,
      "end": 336,
      "loc": {
        "start": {
          "line": 14,
          "column": 18
        },
        "end": {
          "line": 14,
          "column": 20
        }
      }
    },
    {
      "type": {
        "label": "}",
        "beforeExpr": false,
        "startsExpr": false,
        "rightAssociative": false,
        "isLoop": false,
        "isAssign": false,
        "prefix": false,
        "postfix": false,
        "binop": null
      },
      "start": 339,
      "end": 340,
      "loc": {
        "start": {
          "line": 15,
          "column": 2
        },
        "end": {
          "line": 15,
          "column": 3
        }
      }
    },
    {
      "type": {
        "label": "}",
        "beforeExpr": false,
        "startsExpr": false,
        "rightAssociative": false,
        "isLoop": false,
        "isAssign": false,
        "prefix": false,
        "postfix": false,
        "binop": null
      },
      "start": 341,
      "end": 342,
      "loc": {
        "start": {
          "line": 16,
          "column": 0
        },
        "end": {
          "line": 16,
          "column": 1
        }
      }
    },
    {
      "type": {
        "label": ")",
        "beforeExpr": false,
        "startsExpr": false,
        "rightAssociative": false,
        "isLoop": false,
        "isAssign": false,
        "prefix": false,
        "postfix": false,
        "binop": null
      },
      "start": 342,
      "end": 343,
      "loc": {
        "start": {
          "line": 16,
          "column": 1
        },
        "end": {
          "line": 16,
          "column": 2
        }
      }
    },
    {
      "type": {
        "label": ";",
        "beforeExpr": true,
        "startsExpr": false,
        "rightAssociative": false,
        "isLoop": false,
        "isAssign": false,
        "prefix": false,
        "postfix": false,
        "binop": null,
        "updateContext": null
      },
      "start": 343,
      "end": 344,
      "loc": {
        "start": {
          "line": 16,
          "column": 2
        },
        "end": {
          "line": 16,
          "column": 3
        }
      }
    },
    {
      "type": {
        "label": "eof",
        "beforeExpr": false,
        "startsExpr": false,
        "rightAssociative": false,
        "isLoop": false,
        "isAssign": false,
        "prefix": false,
        "postfix": false,
        "binop": null,
        "updateContext": null
      },
      "start": 345,
      "end": 345,
      "loc": {
        "start": {
          "line": 17,
          "column": 0
        },
        "end": {
          "line": 17,
          "column": 0
        }
      }
    }
  ]
}